A TCGA dataset application
…
3.4. Integrating and analysing data

All of these datasets are integrated using the code below resulting in miRNA:target dataset that contains miRNA and gene expression values.

TCGA_E9_A1N5_mirnanormal %>%
  inner_join(mirtarbasegene, by= "miRNA") %>%
  inner_join(TCGA_E9_A1N5_normal, 
             by = c("Target"= "external_gene_name")) %>%
  select(Target, miRNA, total_read, gene_expression) %>%
  distinct() -> TCGA_E9_A1N5_mirnagene

Note: Some of genes have expression values more than one because some of tissue samples were sequenced in two medium separately. So, we select maximum expression values of that genes at following:

#> # A tibble: 26 x 3
#> # Groups:   Target, miRNA [26]
#>    Target  miRNA               n
#>    <chr>   <chr>           <int>
#>  1 COG8    hsa-miR-186-5p      2
#>  2 GOLGA8M hsa-miR-1270        2
#>  3 GOLGA8M hsa-miR-5703        2
#>  4 MATR3   hsa-let-7e-5p       2
#>  5 MATR3   hsa-miR-1-3p        2
#>  6 MATR3   hsa-miR-10b-3p      2
#>  7 MATR3   hsa-miR-125b-5p     2
#>  8 MATR3   hsa-miR-149-5p      2
#>  9 MATR3   hsa-miR-155-5p      2
#> 10 MATR3   hsa-miR-16-1-3p     2
#> # ... with 16 more rows
…
