Calculates average expression changes of all (or specified) nodes except trigger and finds the perturbed node count for all (or specified) nodes in system. — find_node_perturbation • ceRNAnetsim
…
 midsamp%>%
  priming_graph(competing_count = Gene_expression, miRNA_count = miRNA_expression)%>%
  find_node_perturbation(how = 2, cycle= 3, limit=1, fast = 5)%>%
  select(name, perturbation_efficiency, perturbed_count)
#> Warning: First column is processed as competing and the second as miRNA.
#> Warning: `as_quosure()` requires an explicit environment as of rlang 0.3.0.
#> Please supply `env`.
#> This warning is displayed once per session.
#> Subsetting by edges
#> Warning: `cols` is now required.
#> Please use `cols = c(eff_count)`
#> # A tibble: 24 x 3
#>    name   perturbation_efficiency perturbed_count
#>    <chr>                    <dbl>           <dbl>
#>  1 Gene1                   NA                  NA
#>  2 Gene2                   NA                  NA
#>  3 Gene3                   NA                  NA
#>  4 Gene4                    0.525               5
#>  5 Gene5                   NA                  NA
#>  6 Gene6                    1.67                6
#>  7 Gene7                    0.386               0
#>  8 Gene8                    0.178               0
#>  9 Gene9                    0.806               6
#> 10 Gene10                   0.294               0
#> # … with 14 more rows
…
