An TCGA dataset application
…
We compare the two gene expression dataset of TCGA-E9A1N5 patient. So, we selected the gene which increased to 30 fold. (This gene node have been selected as an example.) Note that the selected node must be non-isolated one. If the isolated node selects, the system can not be affected from this distrubtion.

TCGA_E9_A1N5_tumor%>%
  inner_join(TCGA_E9_A1N5_normal, by= "external_gene_name")%>%
  select(patient = patient.x, external_gene_name, tumor_exp = gene_expression.x, normal_exp = gene_expression.y)%>%
  distinct()%>%
  inner_join(TCGA_E9_A1N5_mirnagene, by = c("external_gene_name"= "Target"))%>%
  filter(tumor_exp != 0, normal_exp != 0)%>%
  mutate(FC= tumor_exp/normal_exp)%>%
  arrange(desc(FC))
#> # A tibble: 132,268 x 8
#>    patient external_gene_n~ tumor_exp normal_exp miRNA total_read
#>    <chr>   <chr>                <dbl>      <dbl> <chr>      <int>
#>  1 TCGA-E~ PVALB                  804          2 hsa-~       1963
#>  2 TCGA-E~ RIMS4                 8903         24 hsa-~          5
#>  3 TCGA-E~ RIMS4                 8903         24 hsa-~       4795
#>  4 TCGA-E~ RIMS4                 8903         24 hsa-~         56
#>  5 TCGA-E~ RIMS4                 8903         24 hsa-~         47
#>  6 TCGA-E~ RIMS4                 8903         24 hsa-~        994
#>  7 TCGA-E~ RIMS4                 8903         24 hsa-~         12
#>  8 TCGA-E~ RIMS4                 8903         24 hsa-~          8
#>  9 TCGA-E~ RIMS4                 8903         24 hsa-~         14
#> 10 TCGA-E~ RIMS4                 8903         24 hsa-~          1
#> # ... with 132,258 more rows, and 2 more variables: gene_expression <dbl>,
#> #   FC <dbl>
…
And then, we tried to simulate the network with the gene which has higher expression amount. For this, we selected ACTB node as shown in following:

TCGA_E9_A1N5_tumor%>%
  inner_join(TCGA_E9_A1N5_normal, by= "external_gene_name")%>%
  select(patient = patient.x, external_gene_name, tumor_exp = gene_expression.x, normal_exp = gene_expression.y)%>%
  distinct()%>%
  inner_join(TCGA_E9_A1N5_mirnagene, by = c("external_gene_name"= "Target"))%>%
  filter(tumor_exp != 0, normal_exp != 0)%>%
  mutate(FC= tumor_exp/normal_exp)%>%
  arrange(desc(normal_exp))
#> # A tibble: 132,268 x 8
#>    patient external_gene_n~ tumor_exp normal_exp miRNA total_read
#>    <chr>   <chr>                <dbl>      <dbl> <chr>      <int>
#>  1 TCGA-E~ COL1A1              582819     362641 hsa-~         42
#>  2 TCGA-E~ COL1A1              582819     362641 hsa-~         22
#>  3 TCGA-E~ COL1A1              582819     362641 hsa-~         10
#>  4 TCGA-E~ COL1A1              582819     362641 hsa-~      70463
#>  5 TCGA-E~ COL1A1              582819     362641 hsa-~         52
#>  6 TCGA-E~ COL1A1              582819     362641 hsa-~        806
#>  7 TCGA-E~ COL1A1              582819     362641 hsa-~         27
#>  8 TCGA-E~ COL1A1              582819     362641 hsa-~       1776
#>  9 TCGA-E~ COL1A1              582819     362641 hsa-~          3
#> 10 TCGA-E~ COL1A1              582819     362641 hsa-~          1
#> # ... with 132,258 more rows, and 2 more variables: gene_expression <dbl>,
#> #   FC <dbl>
…
