How to Determine Perturbation in A Sample Dataset
…
It could be insufficient for understanding the regulations of interactions. So, the comparisons in the network could be handled with find_node_perturbation() function for all of elements with the same iteration and change.

How does the find_node_perturbation() work?

The find_node_perturbation() function calculates the perturbation efficiency and perturbed node count of each node in network. The perturbation efficiency is the mean of percentage of expression changes of the elements in the network. The perturbed elements’ count are calculated with find_node_perturbation(). This value symbolizes the affected node amount.

midsamp%>%
priming_graph(competing_count = Gene_expression, miRNA_count = miRNA_expression, 
              aff_factor = c(Energy,seeds), deg_factor = targeting_region)%>%
find_node_perturbation(how = 3, cycle = 4, limit = 0.1) 
#> Warning in priming_graph(., competing_count = Gene_expression, miRNA_count = miRNA_expression, : First variable processes as competing and the second as miRNA.
#> # A tibble: 24 x 5
#>    name   type      node_id perturbation_efficiency perturbed_count
#>    <chr>  <chr>       <int>                   <dbl>           <dbl>
#>  1 Gene1  Competing       1                    8.33               3
#>  2 Gene10 Competing      10                    8.50               7
#>  3 Gene11 Competing      11                    8.61               7
#>  4 Gene12 Competing      12                    7.92               7
#>  5 Gene13 Competing      13                    7.65               6
#>  6 Gene14 Competing      14                    8.32              11
#>  7 Gene15 Competing      15                    8.36               6
#>  8 Gene16 Competing      16                    8.32               1
#>  9 Gene17 Competing      17                    8.37               9
#> 10 Gene18 Competing      18                    8.34               1
#> # … with 14 more rows
…
