The auxiliary commands which can help to the users • ceRNAnetsim
…
Selection of ACTB gene at vignette How does the system behave in mirtarbase dataset without interaction factors?

TCGA_E9_A1N5_tumor%>%
  inner_join(TCGA_E9_A1N5_normal, by= "external_gene_name") %>%
  select(patient = patient.x, 
         external_gene_name, 
         tumor_exp = gene_expression.x, 
         normal_exp = gene_expression.y) %>%
  distinct() %>%
  inner_join(TCGA_E9_A1N5_mirnagene, 
             by = c("external_gene_name"= "Target")) %>%
  filter(tumor_exp != 0, normal_exp != 0) %>%
  mutate(FC= tumor_exp/normal_exp) %>%
  filter(external_gene_name == "ACTB")
#> # A tibble: 46 x 8
#>    patient external_gene_n~ tumor_exp normal_exp miRNA total_read
#>    <chr>   <chr>                <dbl>      <dbl> <chr>      <int>
#>  1 TCGA-E~ ACTB                191469     101917 hsa-~      67599
#>  2 TCGA-E~ ACTB                191469     101917 hsa-~      47266
#>  3 TCGA-E~ ACTB                191469     101917 hsa-~      14554
#>  4 TCGA-E~ ACTB                191469     101917 hsa-~        191
#>  5 TCGA-E~ ACTB                191469     101917 hsa-~          5
#>  6 TCGA-E~ ACTB                191469     101917 hsa-~      12625
#>  7 TCGA-E~ ACTB                191469     101917 hsa-~       5297
#>  8 TCGA-E~ ACTB                191469     101917 hsa-~       2379
#>  9 TCGA-E~ ACTB                191469     101917 hsa-~       8041
#> 10 TCGA-E~ ACTB                191469     101917 hsa-~       1522
#> # ... with 36 more rows, and 2 more variables: gene_expression <dbl>,
#> #   FC <dbl>
…
