A TCGA dataset application • ceRNAnetsim
…
TCGA_E9_A1N5_mirnatumor
648

Integrating data

All of these datasets are integrated using the code below resulting in miRNA:target dataset that contains miRNA and gene expression values.

TCGA_E9_A1N5_mirnanormal %>%
  inner_join(mirtarbasegene, by= "miRNA") %>%
  inner_join(TCGA_E9_A1N5_normal, 
             by = c("Target"= "external_gene_name")) %>%
  select(Target, miRNA, total_read, gene_expression) %>%
  distinct() -> TCGA_E9_A1N5_mirnagene

#> # A tibble: 26 x 3
#> # Groups:   Target, miRNA [26]
#>    Target  miRNA               n
#>    <chr>   <chr>           <int>
#>  1 COG8    hsa-miR-186-5p      2
#>  2 GOLGA8M hsa-miR-1270        2
#>  3 GOLGA8M hsa-miR-5703        2
#>  4 MATR3   hsa-let-7e-5p       2
#>  5 MATR3   hsa-miR-1-3p        2
#>  6 MATR3   hsa-miR-10b-3p      2
#>  7 MATR3   hsa-miR-125b-5p     2
#>  8 MATR3   hsa-miR-149-5p      2
#>  9 MATR3   hsa-miR-155-5p      2
#> 10 MATR3   hsa-miR-16-1-3p     2
#> # ... with 16 more rows
…
The graph was shown that the change in expression level of HIST1H3H results in weak perturbation efficiency, despite 30-fold change. The results of the simulation was shown in following:

TCGA_E9_A1N5_mirnagene %>%
  priming_graph(competing_count = gene_expression, 
                miRNA_count = total_read) %>%
  update_how("HIST1H3H", 30) %>%
  simulate(10)%>%
  as_tibble()%>%
  mutate(FC= count_current/initial_count)%>%
  arrange(desc(FC))
#> Warning in priming_graph(., competing_count = gene_expression, miRNA_count = total_read): First column is processed as competing and the second as miRNA.
#> # A tibble: 13,432 x 8
#>    name  type  node_id initial_count count_pre count_current
#>    <chr> <chr>   <int>         <dbl>     <dbl>         <dbl>
#>  1 HIST~ Comp~    9705            27     808.          808. 
#>  2 KLHL~ Comp~     618           579     579.          579. 
#>  3 YWHAZ Comp~     393         15845   15845.        15845. 
#>  4 SOCS1 Comp~     433            27      27.0          27.0
#>  5 NNT   Comp~    3404          1909    1909.         1909. 
#>  6 PPIP~ Comp~    7084          2342    2342.         2342. 
#>  7 LYVE1 Comp~   11198           916     916.          916. 
#>  8 IL10  Comp~    1639            13      13.0          13.0
#>  9 L1CAM Comp~    2651            60      60.0          60.0
#> 10 IFIT~ Comp~    6030          1550    1550.         1550. 
#> # ... with 13,422 more rows, and 2 more variables: changes_variable <chr>,
#> #   FC <dbl>
…
TCGA_E9_A1N5_mirnagene %>%
  priming_graph(competing_count = gene_expression, 
                miRNA_count = total_read) %>%
  update_how("ACTB", 1.87) %>%
  simulate(10)%>%
  as_tibble()%>%
  mutate(FC= count_current/initial_count)%>%
  arrange(desc(FC))
#> Warning in priming_graph(., competing_count = gene_expression, miRNA_count = total_read): First column is processed as competing and the second as miRNA.
#> # A tibble: 13,432 x 8
#>    name  type  node_id initial_count count_pre count_current
#>    <chr> <chr>   <int>         <dbl>     <dbl>         <dbl>
#>  1 ACTB  Comp~      84        101917  183710.       183710. 
#>  2 ADIP~ Comp~     319          3015    3026.         3026. 
#>  3 RRM2  Comp~      67          1479    1484.         1484. 
#>  4 FAM1~ Comp~     385           569     571.          571. 
#>  5 YOD1  Comp~     472           470     472.          472. 
#>  6 ZNF2~ Comp~     302          1395    1400.         1400. 
#>  7 DNAJ~ Comp~     557            60      60.2          60.2
#>  8 FXN   Comp~     374           382     383.          383. 
#>  9 NKIR~ Comp~       4          1519    1524.         1524. 
#> 10 NRAS  Comp~       7          2311    2318.         2318. 
#> # ... with 13,422 more rows, and 2 more variables: changes_variable <chr>,
#> #   FC <dbl>
…
