Perturbation Efficiency in A Sample Dataset • ceRNAnetsim
…
How does the find_node_perturbation() work?

The find_node_perturbation() function calculates the perturbation efficiency and perturbed node count of each node in network.

In the example below, each node is increased 2-fold and tested for perturbation efficiency for 4 cycles with threshold of 0.1

midsamp %>%
  priming_graph(competing_count = Gene_expression,
                miRNA_count = miRNA_expression,
                aff_factor = c(Energy,seeds),
                deg_factor = targeting_region) %>%
  find_node_perturbation(how = 3, cycle = 4, limit = 0.1)%>%
  select(name, perturbation_efficiency, perturbed_count)
#> Warning in priming_graph(., competing_count = Gene_expression, miRNA_count = miRNA_expression, : First column is processed as competing and the second as miRNA.
#> # A tibble: 24 x 3
#>    name   perturbation_efficiency perturbed_count
#>    <chr>                    <dbl>           <dbl>
#>  1 Gene1                  0.0626                2
#>  2 Gene2                  0.0974                3
#>  3 Gene3                  0.0311                2
#>  4 Gene4                  0.561                10
#>  5 Gene5                  0.0366                3
#>  6 Gene6                  0.505                12
#>  7 Gene7                  0.251                 6
#>  8 Gene8                  0.00973               0
#>  9 Gene9                  0.688                 6
#> 10 Gene10                 0.510                 6
#> # ... with 14 more rows
…
midsamp %>%
  priming_graph(competing_count = Gene_expression,
                miRNA_count = miRNA_expression,
                aff_factor = c(Energy,seeds),
                deg_factor = targeting_region) %>%
  find_node_perturbation(how = 3, cycle = 4, limit = 0.1, fast=5)%>%
  select(name, perturbation_efficiency, perturbed_count)
#> Warning in priming_graph(., competing_count = Gene_expression, miRNA_count = miRNA_expression, : First column is processed as competing and the second as miRNA.
#> Warning: `as_quosure()` requires an explicit environment as of rlang 0.3.0.
#> Please supply `env`.
#> This warning is displayed once per session.
#> Subsetting by edges
#> Warning: `cols` is now required.
#> Please use `cols = c(eff_count)`
#> # A tibble: 24 x 3
#>    name   perturbation_efficiency perturbed_count
#>    <chr>                    <dbl>           <dbl>
#>  1 Gene1                    NA                 NA
#>  2 Gene2                    NA                 NA
#>  3 Gene3                    NA                 NA
#>  4 Gene4                    NA                 NA
#>  5 Gene5                    NA                 NA
#>  6 Gene6                     1.26               8
#>  7 Gene7                    NA                 NA
#>  8 Gene8                    NA                 NA
#>  9 Gene9                     3.12               8
#> 10 Gene10                    2.90               8
#> # ... with 14 more rows
…
