A TCGA dataset application • ceRNAnetsim
…
3.4. Integrating and analysing data

All of these datasets are integrated using the code below resulting in miRNA:target dataset that contains miRNA and gene expression values.

TCGA_E9_A1N5_mirnanormal %>%
  inner_join(mirtarbasegene, by= "miRNA") %>%
  inner_join(TCGA_E9_A1N5_normal, 
             by = c("Target"= "external_gene_name")) %>%
  select(Target, miRNA, total_read, gene_expression) %>%
  distinct() -> TCGA_E9_A1N5_mirnagene

Note: Some of genes have expression values more than one because some of tissue samples were sequenced in two medium separately. So, we select maximum expression values of that genes at following:

#> # A tibble: 26 x 3
#> # Groups:   Target, miRNA [26]
#>    Target  miRNA               n
#>    <chr>   <chr>           <int>
#>  1 COG8    hsa-miR-186-5p      2
#>  2 GOLGA8M hsa-miR-1270        2
#>  3 GOLGA8M hsa-miR-5703        2
#>  4 MATR3   hsa-let-7e-5p       2
#>  5 MATR3   hsa-miR-1-3p        2
#>  6 MATR3   hsa-miR-10b-3p      2
#>  7 MATR3   hsa-miR-125b-5p     2
#>  8 MATR3   hsa-miR-149-5p      2
#>  9 MATR3   hsa-miR-155-5p      2
#> 10 MATR3   hsa-miR-16-1-3p     2
#> # … with 16 more rows
…
The graph was shown that the change in expression level of HIST1H3H results in weak perturbation efficiency, despite 30-fold change. The code shown below can be used for calculation of fold changes after simulation HIST1H3H gene to 30 fold:

simulation_res_HIST%>%
  as_tibble()%>%
  mutate(FC= count_current/initial_count)%>%
  arrange(desc(FC))
#> # A tibble: 13,432 x 8
#>    name  type  node_id initial_count count_pre count_current changes_variable
#>    <chr> <chr>   <int>         <dbl>     <dbl>         <dbl> <chr>           
#>  1 HIST… Comp…    9705            27     808.          808.  Up              
#>  2 KLHL… Comp…     618           579     579.          579.  Up              
#>  3 YWHAZ Comp…     393         15845   15845.        15845.  Down            
#>  4 SOCS1 Comp…     433            27      27.0          27.0 Up              
#>  5 NNT   Comp…    3404          1909    1909.         1909.  Up              
#>  6 PPIP… Comp…    7084          2342    2342.         2342.  Up              
#>  7 LYVE1 Comp…   11198           916     916.          916.  Up              
#>  8 IL10  Comp…    1639            13      13.0          13.0 Up              
#>  9 L1CAM Comp…    2651            60      60.0          60.0 Down            
#> 10 IFIT… Comp…    6030          1550    1550.         1550.  Up              
#> # … with 13,422 more rows, and 1 more variable: FC <dbl>
…
Following codes are shown entire gene fold changes after simulation ACTB gene to 1.87 fold:

simulation_res_ACTB%>%
  as_tibble()%>%
  mutate(FC= count_current/initial_count)%>%
  arrange(desc(FC))
#> # A tibble: 13,432 x 8
#>    name  type  node_id initial_count count_pre count_current changes_variable
#>    <chr> <chr>   <int>         <dbl>     <dbl>         <dbl> <chr>           
#>  1 ACTB  Comp…      84        101917  183710.       183710.  Up              
#>  2 ADIP… Comp…     319          3015    3026.         3026.  Up              
#>  3 RRM2  Comp…      67          1479    1484.         1484.  Up              
#>  4 FAM1… Comp…     385           569     571.          571.  Up              
#>  5 YOD1  Comp…     472           470     472.          472.  Up              
#>  6 ZNF2… Comp…     302          1395    1400.         1400.  Up              
#>  7 DNAJ… Comp…     557            60      60.2          60.2 Up              
#>  8 FXN   Comp…     374           382     383.          383.  Up              
#>  9 NKIR… Comp…       4          1519    1524.         1524.  Up              
#> 10 NRAS  Comp…       7          2311    2318.         2318.  Up              
#> # … with 13,422 more rows, and 1 more variable: FC <dbl>
…
entire_perturbation%>%
  filter(!is.na(perturbation_efficiency), !is.na(perturbed_count))%>%
  select(name, perturbation_efficiency, perturbed_count)
#> # A tibble: 223 x 3
#>    name    perturbation_efficiency perturbed_count
#>    <chr>                     <dbl>           <dbl>
#>  1 SLC25A5               0.320                 207
#>  2 MSL3                  0.0696                207
#>  3 MYCBP2                0.0695                205
#>  4 VPS41                 0.0472                205
#>  5 ADIPOR2               0.175                 207
#>  6 SCMH1                 0.0879                207
#>  7 NR1H4                 0.0000227             207
#>  8 RALBP1                0.156                 207
#>  9 VCL                   0.388                 207
#> 10 CTNNA1                0.683                 207
#> # … with 213 more rows
…
